%YAML 1.1
%TAG !u! tag:unity3d.com,2011:
--- !u!1045 &1
EditorBuildSettings:
  m_ObjectHideFlags: 0
  serializedVersion: 2
  m_Scenes:
  - enabled: 1
    path: Assets/SampleScenes/Scenes/hockey_menu.unity
    guid: 84dbd64b5e9852c4bac920007642d816
  - enabled: 1
    path: Assets/SampleScenes/Scenes/hockey_practice.unity
    guid: b5487e29fe7b6ca45bc94bc20dccd760
  - enabled: 1
    path: Assets/SampleScenes/Scenes/hockey_practice_no_goalie.unity
    guid: 414e6db1ba9be0445a00167c5374fa5d
